Tibbles
…
When you started this tutorial, a tibble was created from the chunk below. In the context of a learnR tutorial, this step cannot be made interactive. You can see the code, but you cannot change it.

ar_exp <- read_delim(file="AR_Expression_cBioPortal.txt", delim="\t", col_names=TRUE)

The argument delim="\t" indicates that the file has tab-delimited columns. The text pattern "\t" is how tabs are encoded in a plain text file. These special characters are usually hidden by text editors and word processors.

Note that the function read_delim was used and NOT read.delim. The first is a tidyverse R function that will create a tibble. The latter is an old school R function that will create a data frame. In general, do not use read.delim in this class!

The class of a tibble is confusing. It essentially has three classes. Importantly, it behaves much like the data frame.

## [1] "spec_tbl_df" "tbl_df"      "tbl"         "data.frame"

To examine the data in a tibble, simply enter its name. In an RMarkdown document, you should be able to browse down the rows and across the columns. In addition, the size (rows and columns) and class of each variable should be shown (under the column names).

## # A tibble: 9,121 x 6
##    `Sample Id`  `Cancer Study`        `Profile Name` Gene  Mutation   Value
##    <chr>        <chr>                 <chr>          <chr> <chr>      <dbl>
##  1 TCGA-OR-A5J Adrenocortical Carci RNA Seq V2     AR    Not Mut  0.0849
##  2 TCGA-OR-A5J Adrenocortical Carci RNA Seq V2     AR    Not Mut  7.45  
##  3 TCGA-OR-A5J Adrenocortical Carci RNA Seq V2     AR    Not Mut  6.30  
##  4 TCGA-OR-A5J Adrenocortical Carci RNA Seq V2     AR    Not Mut  1.28  
##  5 TCGA-OR-A5J Adrenocortical Carci RNA Seq V2     AR    Not Mut -3.32  
##  6 TCGA-OR-A5J Adrenocortical Carci RNA Seq V2     AR    Not Mut -3.32  
##  7 TCGA-OR-A5J Adrenocortical Carci RNA Seq V2     AR    Not Mut  4.80  
##  8 TCGA-OR-A5J Adrenocortical Carci RNA Seq V2     AR    Not Mut  3.16  
##  9 TCGA-OR-A5J Adrenocortical Carci RNA Seq V2     AR    Not Mut -3.32  
## 10 TCGA-OR-A5J Adrenocortical Carci RNA Seq V2     AR    Not Mut  2.54  
## #  with 9,111 more rows
…
Renaming Columns with rename

One problem with this data is that the column names contain special characters, i.e.spaces. Base R functions like read.delim (not read_delim) will fix these issues by replacing all special characters with a period. The tidyverse R function read_delim will leave your column names as is, but any column names with special characters must be used carefully.

Here is a quick example (jumping ahead a bit).

You can create a subset of a tibble by selecting specific columns by name without using quotes or back ticks. For example, we can select the variables Mutation and Value from ar_exp.

## # A tibble: 9,121 x 2
##    Mutation      Value
##    <chr>         <dbl>
##  1 Not Mutated  0.0849
##  2 Not Mutated  7.45  
##  3 Not Mutated  6.30  
##  4 Not Mutated  1.28  
##  5 Not Mutated -3.32  
##  6 Not Mutated -3.32  
##  7 Not Mutated  4.80  
##  8 Not Mutated  3.16  
##  9 Not Mutated -3.32  
## 10 Not Mutated  2.54  
## #  with 9,111 more rows

But, you will get an error if you try to select Cancer Study. You can fix this by flanking Cancer Study with backquotes (the key to the left of the number 1). Single quotes and double quotes work as well. In fact, in base R, column names must always be quoted, even if there are no special characters!

## # A tibble: 9,121 x 2
##    `Cancer Study`                               Mutation   
##    <chr>                                        <chr>      
##  1 Adrenocortical Carcinoma (TCGA, Provisional) Not Mutated
##  2 Adrenocortical Carcinoma (TCGA, Provisional) Not Mutated
##  3 Adrenocortical Carcinoma (TCGA, Provisional) Not Mutated
##  4 Adrenocortical Carcinoma (TCGA, Provisional) Not Mutated
##  5 Adrenocortical Carcinoma (TCGA, Provisional) Not Mutated
##  6 Adrenocortical Carcinoma (TCGA, Provisional) Not Mutated
##  7 Adrenocortical Carcinoma (TCGA, Provisional) Not Mutated
##  8 Adrenocortical Carcinoma (TCGA, Provisional) Not Mutated
##  9 Adrenocortical Carcinoma (TCGA, Provisional) Not Mutated
## 10 Adrenocortical Carcinoma (TCGA, Provisional) Not Mutated
## #  with 9,111 more rows
One advantage of tidyverse R is that you can use naked column names, i.e.no quotes. Therefore, we are going to fix the column names that have bad naming conventions. Here are some rules for valid names in R.

R Naming Conventions

Names cannot start with a number.

The only allowed special characters are the underscore and period, but do not begin names with these special characters. This is reserved for special cases.

CamelCase and semiCamelCase are allowed, AND R IS CASE SENSITIVE!!

Renaming columns is simple with the function rename. The first argument is the tibble that you want to change. You then list the columns that you need to rename as new_name = old_name pairs. You may need to use backtick or quotes with the old column names, but you do not need to use them with the new names.

This expression is a simple example of recursion, i.e.we are creating an object named ar_exp from an object named ar_exp. Simply put, we are overwriting the old object. Recursive techniques are very common in computer programming, but you need to be careful, e.g.this chunk will only run properly once because the original column names are gone.

## # A tibble: 9,121 x 6
##    Sample      Study                      Profile   Gene  Mutation    Value
##    <chr>       <chr>                      <chr>     <chr> <chr>       <dbl>
##  1 TCGA-OR-A5 Adrenocortical Carcinoma  RNA Seq  AR    Not Muta  0.0849
##  2 TCGA-OR-A5 Adrenocortical Carcinoma  RNA Seq  AR    Not Muta  7.45  
##  3 TCGA-OR-A5 Adrenocortical Carcinoma  RNA Seq  AR    Not Muta  6.30  
##  4 TCGA-OR-A5 Adrenocortical Carcinoma  RNA Seq  AR    Not Muta  1.28  
##  5 TCGA-OR-A5 Adrenocortical Carcinoma  RNA Seq  AR    Not Muta -3.32  
##  6 TCGA-OR-A5 Adrenocortical Carcinoma  RNA Seq  AR    Not Muta -3.32  
##  7 TCGA-OR-A5 Adrenocortical Carcinoma  RNA Seq  AR    Not Muta  4.80  
##  8 TCGA-OR-A5 Adrenocortical Carcinoma  RNA Seq  AR    Not Muta  3.16  
##  9 TCGA-OR-A5 Adrenocortical Carcinoma  RNA Seq  AR    Not Muta -3.32  
## 10 TCGA-OR-A5 Adrenocortical Carcinoma  RNA Seq  AR    Not Muta  2.54  
## #  with 9,111 more rows
…
Note, the rows are displayed in their original order, not in the sorted order.

You can see the bottom ten by using n = -10.

## # A tibble: 421 x 6
##    Sample       Study                        Profile  Gene  Mutation  Value
##    <chr>        <chr>                        <chr>    <chr> <chr>     <dbl>
##  1 TCGA-OR-A5J Adrenocortical Carcinoma (T RNA Seq AR    Not Muta -3.32
##  2 TCGA-OR-A5J Adrenocortical Carcinoma (T RNA Seq AR    Not Muta -3.32
##  3 TCGA-OR-A5J Adrenocortical Carcinoma (T RNA Seq AR    Not Muta -3.32
##  4 TCGA-OR-A5J Adrenocortical Carcinoma (T RNA Seq AR    Not Muta -3.32
##  5 TCGA-OR-A5J Adrenocortical Carcinoma (T RNA Seq AR    Not Muta -3.32
##  6 TCGA-OR-A5K Adrenocortical Carcinoma (T RNA Seq AR    Not Muta -3.32
##  7 TCGA-OR-A5K Adrenocortical Carcinoma (T RNA Seq AR    Not Muta -3.32
##  8 TCGA-OR-A5K Adrenocortical Carcinoma (T RNA Seq AR    Not Muta -3.32
##  9 TCGA-OR-A5L Adrenocortical Carcinoma (T RNA Seq AR    Not Muta -3.32
## 10 TCGA-OR-A5L Adrenocortical Carcinoma (T RNA Seq AR    Not Muta -3.32
## #  with 411 more rows
…
There are many other functions that we could use with filter, especially with character vectors, but we will save these for another tutorial.

Extract Columns as a Tibble with select

You can select one or more columns from a tibble with the function select. Importantly, the result is a new tibble that contains only the specified columns. The order of the columns in the new tibble is determined by the order in which you selected the variables, so select is frequently used to simply change the order of your variables (columns).

The chunk below will change the order of our columns and save it to ar_exp.

## # A tibble: 9,121 x 6
##    Gene    Value Mutation   Sample      Study                      Profile 
##    <chr>   <dbl> <chr>      <chr>       <chr>                      <chr>   
##  1 AR     0.0849 Not Mutat TCGA-OR-A5 Adrenocortical Carcinoma  RNA Seq
##  2 AR     7.45   Not Mutat TCGA-OR-A5 Adrenocortical Carcinoma  RNA Seq
##  3 AR     6.30   Not Mutat TCGA-OR-A5 Adrenocortical Carcinoma  RNA Seq
##  4 AR     1.28   Not Mutat TCGA-OR-A5 Adrenocortical Carcinoma  RNA Seq
##  5 AR    -3.32   Not Mutat TCGA-OR-A5 Adrenocortical Carcinoma  RNA Seq
##  6 AR    -3.32   Not Mutat TCGA-OR-A5 Adrenocortical Carcinoma  RNA Seq
##  7 AR     4.80   Not Mutat TCGA-OR-A5 Adrenocortical Carcinoma  RNA Seq
##  8 AR     3.16   Not Mutat TCGA-OR-A5 Adrenocortical Carcinoma  RNA Seq
##  9 AR    -3.32   Not Mutat TCGA-OR-A5 Adrenocortical Carcinoma  RNA Seq
## 10 AR     2.54   Not Mutat TCGA-OR-A5 Adrenocortical Carcinoma  RNA Seq
## #  with 9,111 more rows

This operation does not really change the data in anyway. It simply changes the order of the columns. You can drop columns this way if you require only a subset of your data.

The chunk below will only retain three columns. In this case, we are not going to save the result to a new object.

## # A tibble: 9,121 x 3
##    Gene    Value Sample         
##    <chr>   <dbl> <chr>          
##  1 AR     0.0849 TCGA-OR-A5J1-01
##  2 AR     7.45   TCGA-OR-A5J2-01
##  3 AR     6.30   TCGA-OR-A5J3-01
##  4 AR     1.28   TCGA-OR-A5J5-01
##  5 AR    -3.32   TCGA-OR-A5J6-01
##  6 AR    -3.32   TCGA-OR-A5J7-01
##  7 AR     4.80   TCGA-OR-A5J8-01
##  8 AR     3.16   TCGA-OR-A5J9-01
##  9 AR    -3.32   TCGA-OR-A5JB-01
## 10 AR     2.54   TCGA-OR-A5JC-01
## #  with 9,111 more rows

You can also use ranges of columns with the colon operator, :.

## # A tibble: 9,121 x 4
##    Gene    Value Mutation    Study                                       
##    <chr>   <dbl> <chr>       <chr>                                       
##  1 AR     0.0849 Not Mutated Adrenocortical Carcinoma (TCGA, Provisional)
##  2 AR     7.45   Not Mutated Adrenocortical Carcinoma (TCGA, Provisional)
##  3 AR     6.30   Not Mutated Adrenocortical Carcinoma (TCGA, Provisional)
##  4 AR     1.28   Not Mutated Adrenocortical Carcinoma (TCGA, Provisional)
##  5 AR    -3.32   Not Mutated Adrenocortical Carcinoma (TCGA, Provisional)
##  6 AR    -3.32   Not Mutated Adrenocortical Carcinoma (TCGA, Provisional)
##  7 AR     4.80   Not Mutated Adrenocortical Carcinoma (TCGA, Provisional)
##  8 AR     3.16   Not Mutated Adrenocortical Carcinoma (TCGA, Provisional)
##  9 AR    -3.32   Not Mutated Adrenocortical Carcinoma (TCGA, Provisional)
## 10 AR     2.54   Not Mutated Adrenocortical Carcinoma (TCGA, Provisional)
## #  with 9,111 more rows

With the subtraction operator, -, you can drop specific columns.

## # A tibble: 9,121 x 4
##      Value Mutation    Sample          Profile   
##      <dbl> <chr>       <chr>           <chr>     
##  1  0.0849 Not Mutated TCGA-OR-A5J1-01 RNA Seq V2
##  2  7.45   Not Mutated TCGA-OR-A5J2-01 RNA Seq V2
##  3  6.30   Not Mutated TCGA-OR-A5J3-01 RNA Seq V2
##  4  1.28   Not Mutated TCGA-OR-A5J5-01 RNA Seq V2
##  5 -3.32   Not Mutated TCGA-OR-A5J6-01 RNA Seq V2
##  6 -3.32   Not Mutated TCGA-OR-A5J7-01 RNA Seq V2
##  7  4.80   Not Mutated TCGA-OR-A5J8-01 RNA Seq V2
##  8  3.16   Not Mutated TCGA-OR-A5J9-01 RNA Seq V2
##  9 -3.32   Not Mutated TCGA-OR-A5JB-01 RNA Seq V2
## 10  2.54   Not Mutated TCGA-OR-A5JC-01 RNA Seq V2
## #  with 9,111 more rows
…
In fact, the result on the tibble is NOT the sum total of all characters in the Mutation variable. We can confirm this by calculating the sum on the vector.

## [1] 104900

The result on the tibble is inexplicable. Generally, it is always best to pull a variable from a tibble if you need to use a non-tidyverse function on the variable.

Arrange Rows with arrange

When we used top_n above, the tibble was transiently sorted by a variable, and a result was returned.

You can use the function arrange to directly sort a tibble by one or more variables.

This chunk will sort our tibble by Value and Study, in ascending order. The first listed variable has precedent.

## # A tibble: 9,121 x 6
##    Gene  Value Mutation   Sample       Study                       Profile 
##    <chr> <dbl> <chr>      <chr>        <chr>                       <chr>   
##  1 AR    -3.32 Not Mutat TCGA-AB-280 Acute Myeloid Leukemia (TC RNA Seq
##  2 AR    -3.32 Not Mutat TCGA-AB-281 Acute Myeloid Leukemia (TC RNA Seq
##  3 AR    -3.32 Not Mutat TCGA-AB-281 Acute Myeloid Leukemia (TC RNA Seq
##  4 AR    -3.32 Not Mutat TCGA-AB-281 Acute Myeloid Leukemia (TC RNA Seq
##  5 AR    -3.32 Not Mutat TCGA-AB-281 Acute Myeloid Leukemia (TC RNA Seq
##  6 AR    -3.32 Not Mutat TCGA-AB-282 Acute Myeloid Leukemia (TC RNA Seq
##  7 AR    -3.32 Not Mutat TCGA-AB-283 Acute Myeloid Leukemia (TC RNA Seq
##  8 AR    -3.32 Not Mutat TCGA-AB-283 Acute Myeloid Leukemia (TC RNA Seq
##  9 AR    -3.32 Not Mutat TCGA-AB-283 Acute Myeloid Leukemia (TC RNA Seq
## 10 AR    -3.32 Not Mutat TCGA-AB-284 Acute Myeloid Leukemia (TC RNA Seq
## #  with 9,111 more rows

You can get the descending sort by adding desc.

## # A tibble: 9,121 x 6
##    Gene  Value Mutation    Sample      Study                       Profile 
##    <chr> <dbl> <chr>       <chr>       <chr>                       <chr>   
##  1 AR     12.5 Not Mutated TCGA-AQ-A0 Breast Invasive Carcinoma  RNA Seq
##  2 AR     12.2 Not Mutated TCGA-XQ-A8 Prostate Adenocarcinoma (T RNA Seq
##  3 AR     12.1 Not Sequen TCGA-AR-A0 Breast Invasive Carcinoma  RNA Seq
##  4 AR     12.1 Not Mutated TCGA-A2-A0 Breast Invasive Carcinoma  RNA Seq
##  5 AR     12.1 Not Mutated TCGA-C8-A1 Breast Invasive Carcinoma  RNA Seq
##  6 AR     11.9 Not Mutated TCGA-A8-A0 Breast Invasive Carcinoma  RNA Seq
##  7 AR     11.9 Not Mutated TCGA-A8-A0 Breast Invasive Carcinoma  RNA Seq
##  8 AR     11.9 Not Mutated TCGA-A7-A0 Breast Invasive Carcinoma  RNA Seq
##  9 AR     11.8 Not Mutated TCGA-A8-A0 Breast Invasive Carcinoma  RNA Seq
## 10 AR     11.8 Not Mutated TCGA-E2-A1 Breast Invasive Carcinoma  RNA Seq
## #  with 9,111 more rows
…
The filter appears to work correctly.

## [1] 8.77191

Writing a pipe is the first step in learning how to write a function or workflow.

Summarizing Data with group_by and summarize

The pipes above performed a summary on a group of samples determined by our filter. You can easily create summaries of groups of samples based on the values of your variables with group_by and summarize.

What if we wanted the mean expression of AR by cancer type? We can use group_by on Study then use summarize to create a new tibble with the mean.

The result is a new tibble with the columns Study (the grouping variable) and mean_AR, the variable a defined with summarize.

## # A tibble: 30 x 2
##    Study                                                            mean_AR
##    <chr>                                                              <dbl>
##  1 Acute Myeloid Leukemia (TCGA, Provisional)                          3.22
##  2 Adrenocortical Carcinoma (TCGA, Provisional)                        2.31
##  3 Bladder Urothelial Carcinoma (TCGA, Provisional)                    2.92
##  4 Brain Lower Grade Glioma (TCGA, Provisional)                        5.32
##  5 Breast Invasive Carcinoma (TCGA, Provisional)                       7.97
##  6 Cervical Squamous Cell Carcinoma and Endocervical Adenocarcinom    1.70
##  7 Cholangiocarcinoma (TCGA, Provisional)                              3.20
##  8 Colorectal Adenocarcinoma (TCGA, Provisional)                       1.38
##  9 Glioblastoma Multiforme (TCGA, Provisional)                         5.55
## 10 Head and Neck Squamous Cell Carcinoma (TCGA, Provisional)           1.78
## #  with 20 more rows

We can quickly add arrange to the pipe to get this is descending order.

## # A tibble: 30 x 2
##    Study                                                     mean_AR
##    <chr>                                                       <dbl>
##  1 Prostate Adenocarcinoma (TCGA, Provisional)                  8.70
##  2 Breast Invasive Carcinoma (TCGA, Provisional)                7.97
##  3 Ovarian Serous Cystadenocarcinoma (TCGA, Provisional)        7.60
##  4 Kidney Renal Papillary Cell Carcinoma (TCGA, Provisional)    6.70
##  5 Kidney Renal Clear Cell Carcinoma (TCGA, Provisional)        6.64
##  6 Liver Hepatocellular Carcinoma (TCGA, Provisional)           6.28
##  7 Glioblastoma Multiforme (TCGA, Provisional)                  5.55
##  8 Brain Lower Grade Glioma (TCGA, Provisional)                 5.32
##  9 Uterine Corpus Endometrial Carcinoma (TCGA, Provisional)     4.46
## 10 Kidney Chromophobe (TCGA, Provisional)                       4.39
## #  with 20 more rows

You can add as many summary variables as you need. For example, you might want the standard deviation, sd.

## # A tibble: 30 x 3
##    Study                                                     mean_AR sd_AR
##    <chr>                                                       <dbl> <dbl>
##  1 Prostate Adenocarcinoma (TCGA, Provisional)                  8.70  1.50
##  2 Breast Invasive Carcinoma (TCGA, Provisional)                7.97  2.80
##  3 Ovarian Serous Cystadenocarcinoma (TCGA, Provisional)        7.60  1.91
##  4 Kidney Renal Papillary Cell Carcinoma (TCGA, Provisional)    6.70  2.16
##  5 Kidney Renal Clear Cell Carcinoma (TCGA, Provisional)        6.64  1.89
##  6 Liver Hepatocellular Carcinoma (TCGA, Provisional)           6.28  2.94
##  7 Glioblastoma Multiforme (TCGA, Provisional)                  5.55  1.55
##  8 Brain Lower Grade Glioma (TCGA, Provisional)                 5.32  1.97
##  9 Uterine Corpus Endometrial Carcinoma (TCGA, Provisional)     4.46  2.88
## 10 Kidney Chromophobe (TCGA, Provisional)                       4.39  2.85
## #  with 20 more rows

A data summary is often the first step in an analysis. Later, we will combine this with data visualization using ggplot2.

Tallying Groups of Observations with count

Another type of summary is to simply tally or count the number of samples in a given group. This can be a very useful operation to build a contigency table for statistical analysis.

The function count, will group your observations by the specified variables and simply tally the number of rows.

For example, how many samples are there for each study?

## # A tibble: 30 x 2
##    Study                                                         n
##    <chr>                                                     <int>
##  1 Breast Invasive Carcinoma (TCGA, Provisional)              1100
##  2 Kidney Renal Clear Cell Carcinoma (TCGA, Provisional)       534
##  3 Brain Lower Grade Glioma (TCGA, Provisional)                530
##  4 Head and Neck Squamous Cell Carcinoma (TCGA, Provisional)   522
##  5 Lung Adenocarcinoma (TCGA, Provisional)                     517
##  6 Thyroid Carcinoma (TCGA, Provisional)                       509
##  7 Lung Squamous Cell Carcinoma (TCGA, Provisional)            501
##  8 Prostate Adenocarcinoma (TCGA, Provisional)                 498
##  9 Skin Cutaneous Melanoma (TCGA, Provisional)                 472
## 10 Bladder Urothelial Carcinoma (TCGA, Provisional)            408
## #  with 20 more rows
…
